{
  "firestore": {
    "rules": "firestore.rules",
    "indexes": "firestore.indexes.json"
  },
  "functions": {
    "predeploy": [
      "npm --prefix \"$RESOURCE_DIR\" run lint"
    ],
    "source": "functions"
  },
  "emulators": {
    "functions": {
      "port": 5001
    },
    "firestore": {
      "port": "5002"
    }
  }
}
